<svg xmlns="http://www.w3.org/2000/svg" width="332" height="212.079" viewBox="0 0 332 212.079">
  <g id="section-alert" transform="translate(-919 -397)">
    <path id="Path_171" data-name="Path 171" d="M0,0H330V212H0Z" transform="translate(921 397)" fill="#484848"/>
    <g id="Group_196" data-name="Group 196" transform="translate(992.627 436.804)">
      <g id="Group_201" data-name="Group 201" transform="translate(0 0)">
        <rect id="Rectangle_326" data-name="Rectangle 326" width="239.586" height="5.472" transform="translate(9.734 32.976)" fill="#071b2a"/>
        <rect id="Rectangle_327" data-name="Rectangle 327" width="239.586" height="5.472" transform="translate(9.734 43.892)" fill="#071b2a"/>
        <path id="Path_149" data-name="Path 149" d="M0,0H239.586V10.018H0Z" transform="translate(9.734 57.145)" fill="#071b2a"/>
        <rect id="Rectangle_328" data-name="Rectangle 328" width="127.037" height="5.472" transform="translate(9.734)" fill="#071b2a"/>
        <rect id="Rectangle_329" data-name="Rectangle 329" width="73.88" height="47.083" transform="translate(9.734 73.976)" fill="#071b2a"/>
        <rect id="Rectangle_330" data-name="Rectangle 330" width="73.88" height="47.083" transform="translate(92.587 73.976)" fill="#071b2a"/>
        <rect id="Rectangle_331" data-name="Rectangle 331" width="73.88" height="47.083" transform="translate(175.441 73.976)" fill="#071b2a"/>
        <rect id="Rectangle_332" data-name="Rectangle 332" width="73.88" height="6.158" transform="translate(9.734 127.799)" fill="#071b2a"/>
        <rect id="Rectangle_333" data-name="Rectangle 333" width="73.88" height="6.158" transform="translate(9.734 140.72)" fill="#071b2a"/>
        <rect id="Rectangle_334" data-name="Rectangle 334" width="32.424" height="6.158" transform="translate(9.734 152.958)" fill="#071b2a"/>
        <rect id="Rectangle_335" data-name="Rectangle 335" width="73.88" height="6.158" transform="translate(92.587 127.598)" fill="#071b2a"/>
        <rect id="Rectangle_336" data-name="Rectangle 336" width="73.88" height="6.158" transform="translate(92.587 140.525)" fill="#071b2a"/>
        <rect id="Rectangle_337" data-name="Rectangle 337" width="32.424" height="6.158" transform="translate(92.587 152.764)" fill="#071b2a"/>
        <rect id="Rectangle_338" data-name="Rectangle 338" width="73.88" height="6.158" transform="translate(175.441 127.598)" fill="#071b2a"/>
        <rect id="Rectangle_339" data-name="Rectangle 339" width="73.88" height="6.158" transform="translate(175.441 140.525)" fill="#071b2a"/>
        <rect id="Rectangle_340" data-name="Rectangle 340" width="32.424" height="6.158" transform="translate(175.441 152.764)" fill="#071b2a"/>
        <line id="Line_160" data-name="Line 160" x2="256.645" transform="translate(0 19.532)" fill="none"/>
        <circle id="Ellipse_71" data-name="Ellipse 71" cx="1.67" cy="1.67" r="1.67" transform="translate(14.168 60.503)" fill="#071b2a"/>
        <rect id="Rectangle_341" data-name="Rectangle 341" width="88.492" height="0.557" transform="translate(21.959 62.182)" fill="#071b2a"/>
      </g>
    </g>
    <g id="Group_70" data-name="Group 70" transform="translate(919 397)">
      <path id="Path_164" data-name="Path 164" d="M0,0H330.081V12.331H0Z" transform="translate(0.191 18.778)" fill="#3f7386"/>
      <g id="Group_63" data-name="Group 63" transform="translate(0.191 0)">
        <path id="Path_65" data-name="Path 65" d="M335.681,12.769H14.306a4.32,4.32,0,0,0-4.353,4.26V31.845H340.034V17.029A4.32,4.32,0,0,0,335.681,12.769Z" transform="translate(-9.953 -12.769)" fill="#484848"/>
        <path id="Path_66" data-name="Path 66" d="M25.763,25.377A3.062,3.062,0,1,1,22.7,22.315,3.062,3.062,0,0,1,25.763,25.377Z" transform="translate(-12.968 -15.74)" fill="#0a1516"/>
        <path id="Path_67" data-name="Path 67" d="M25.505,25.59A2.591,2.591,0,1,1,22.915,23,2.59,2.59,0,0,1,25.505,25.59Z" transform="translate(-13.18 -15.953)" fill="#fbfbfb"/>
        <path id="Path_68" data-name="Path 68" d="M25.247,25.8a2.119,2.119,0,1,1-2.119-2.119A2.119,2.119,0,0,1,25.247,25.8Z" transform="translate(-13.393 -16.165)" fill="#ed412f"/>
        <path id="Path_69" data-name="Path 69" d="M38.442,25.377a3.062,3.062,0,1,1-3.061-3.062A3.062,3.062,0,0,1,38.442,25.377Z" transform="translate(-16.913 -15.74)" fill="#0a1516"/>
        <path id="Path_70" data-name="Path 70" d="M38.184,25.59A2.591,2.591,0,1,1,35.594,23,2.59,2.59,0,0,1,38.184,25.59Z" transform="translate(-17.126 -15.953)" fill="#fbfbfb"/>
        <path id="Path_71" data-name="Path 71" d="M37.927,25.8a2.12,2.12,0,1,1-2.119-2.119A2.12,2.12,0,0,1,37.927,25.8Z" transform="translate(-17.339 -16.165)" fill="#ffa310"/>
        <path id="Path_72" data-name="Path 72" d="M51.121,25.377a3.062,3.062,0,1,1-3.062-3.062A3.062,3.062,0,0,1,51.121,25.377Z" transform="translate(-20.859 -15.74)" fill="#0a1516"/>
        <path id="Path_73" data-name="Path 73" d="M50.863,25.59A2.591,2.591,0,1,1,48.273,23,2.59,2.59,0,0,1,50.863,25.59Z" transform="translate(-21.072 -15.953)" fill="#fbfbfb"/>
        <path id="Path_74" data-name="Path 74" d="M50.606,25.8a2.12,2.12,0,1,1-2.12-2.119A2.12,2.12,0,0,1,50.606,25.8Z" transform="translate(-21.285 -16.165)" fill="#71dd2a"/>
        <path id="Path_75" data-name="Path 75" d="M478.726,22.054v3.273l-1.259-1.259-1.511,1.511-.755-.755,1.511-1.511-1.259-1.259Z" transform="translate(-154.372 -15.658)" fill="#fbfbfb"/>
        <path id="Path_76" data-name="Path 76" d="M473.586,27.95l-1.511,1.511,1.259,1.259h-3.273V27.446L471.32,28.7l1.511-1.511Z" transform="translate(-152.773 -17.258)" fill="#fbfbfb"/>
      </g>
      <line id="Line_80" data-name="Line 80" x2="329.951" transform="translate(0.307 29.601)" fill="none"/>
      <path id="Path_148" data-name="Path 148" d="M0,0H71.259V180.97H3.574A3.528,3.528,0,0,1,0,177.489Z" transform="translate(0.307 31.109)" fill="#071b2a"/>
      <path id="Path_166" data-name="Path 166" d="M.054,0H71.313V12.5H6.068c-3.594.373-6.32-1.1-6.32-5.335Z" transform="translate(0.253 199.527)" fill="#80d9f1" opacity="0.46"/>
      <line id="Line_81" data-name="Line 81" x2="258.459" transform="translate(71.799 41.904)" fill="none"/>
      <g id="logo" transform="translate(5.346 22.378)">
        <path id="Path_77" data-name="Path 77" d="M23.458,50.766l.678.679-.678.678-.679-.678Zm1.831,1.376-1.831,1.831-1.831-1.83L19.8,53.974l-2.529-2.528L19.8,48.917l1.6,1.6-1.6,1.6-.679-.678.906-.906-.227-.227-1.132,1.133L19.8,52.578l3.662-3.661,3.662,3.661.227-.227-1.83-1.831,1.6-1.6,2.529,2.529-.7.7L27.12,50.313l-.227.227,1.83,1.831-1.6,1.6Zm-.7-.7-1.132-1.133-1.133,1.133,1.133,1.132Z" transform="translate(-17.268 -48.917)" fill="#fff"/>
        <rect id="Rectangle_284" data-name="Rectangle 284" width="0.987" height="1.601" transform="translate(7.322 2.528) rotate(45)" fill="#fff"/>
        <rect id="Rectangle_285" data-name="Rectangle 285" width="0.987" height="1.601" transform="matrix(0.707, 0.707, -0.707, 0.707, 3.661, 2.529)" fill="#fff"/>
      </g>
      <rect id="Rectangle_296" data-name="Rectangle 296" width="26.863" height="2.066" transform="translate(157.469 23.107)" fill="#e9e9e9"/>
      <rect id="Rectangle_297" data-name="Rectangle 297" width="26.863" height="2.066" transform="translate(116.815 23.107)" fill="#e9e9e9"/>
      <rect id="Rectangle_298" data-name="Rectangle 298" width="26.863" height="2.066" transform="translate(76.162 23.107)" fill="#e9e9e9"/>
      <rect id="Rectangle_299" data-name="Rectangle 299" width="21.353" height="1.378" transform="translate(42.131 204.993)" fill="#fff"/>
      <rect id="Rectangle_300" data-name="Rectangle 300" width="21.353" height="1.378" transform="translate(8.694 204.993)" fill="#fff"/>
      <g id="Group_64" data-name="Group 64" transform="translate(62.978 34.493)">
        <line id="Line_83" data-name="Line 83" x2="5.059" transform="translate(0)" fill="none"/>
        <line id="Line_84" data-name="Line 84" x2="5.059" transform="translate(0 1.342)" fill="none"/>
        <line id="Line_85" data-name="Line 85" x2="5.059" transform="translate(0 2.684)" fill="none"/>
      </g>
      <rect id="Rectangle_652" data-name="Rectangle 652" width="4.141" height="4.141" transform="translate(5.346 37.176)" fill="#fff"/>
      <rect id="Rectangle_653" data-name="Rectangle 653" width="44.169" height="2.761" transform="translate(15.354 37.867)" fill="#fff"/>
      <rect id="Rectangle_654" data-name="Rectangle 654" width="4.141" height="4.141" transform="translate(5.346 46.015)" fill="#fff"/>
      <rect id="Rectangle_655" data-name="Rectangle 655" width="44.169" height="2.761" transform="translate(15.354 46.706)" fill="#fff"/>
      <rect id="Rectangle_656" data-name="Rectangle 656" width="4.141" height="4.141" transform="translate(5.346 54.854)" fill="#fff"/>
      <rect id="Rectangle_657" data-name="Rectangle 657" width="44.169" height="2.761" transform="translate(15.354 55.545)" fill="#fff"/>
      <rect id="Rectangle_658" data-name="Rectangle 658" width="4.141" height="4.141" transform="translate(5.346 63.694)" fill="#fff"/>
      <rect id="Rectangle_659" data-name="Rectangle 659" width="44.169" height="2.761" transform="translate(15.354 64.384)" fill="#fff"/>
      <rect id="Rectangle_660" data-name="Rectangle 660" width="4.141" height="4.141" transform="translate(5.346 72.533)" fill="#fff"/>
      <rect id="Rectangle_661" data-name="Rectangle 661" width="44.169" height="2.761" transform="translate(15.354 73.223)" fill="#fff"/>
    </g>
    <g id="Group_203" data-name="Group 203" transform="translate(992.627 436.804)">
      <path id="Path_149-2" data-name="Path 149" d="M0,0H239.586V10.018H0Z" transform="translate(9.734 57.145)" fill="#dc3545"/>
      <circle id="Ellipse_71-2" data-name="Ellipse 71" cx="1.67" cy="1.67" r="1.67" transform="translate(14.168 60.503)" fill="#fff"/>
      <rect id="Rectangle_341-2" data-name="Rectangle 341" width="88.492" height="0.557" transform="translate(21.959 62.182)" fill="#fff"/>
    </g>
  </g>
</svg>
