[
  {
    "component": "badge",
    "states": [
      {
        "status": "default",
        "how_to_use": "Use default state of badge to draw attention to new or important content unless it falls into a specific use case.",
        "code": [
          "<h1>Example heading <span class='badge badge-secondary'>New</span></h1>",
          "<h2>Example heading <span class='badge badge-secondary'>New</span></h2>",
          "<h3>Example heading <span class='badge badge-secondary'>New</span></h3>",
          "<h4>Example heading <span class='badge badge-secondary'>New</span></h4>",
          "<h5>Example heading <span class='badge badge-secondary'>New</span></h5>",
          "<h6>Example heading <span class='badge badge-secondary'>New</span></h6>"
        ]
      },
      {
        "status": "badge within button",
        "how_to_use": "A badge within a button or link helps users distinguish counters or notifications. If needed, use visually hidden text to convey meaning to assertive technologies.",
        "code": [
          "<button type='button' class='btn btn-primary'>",
          "   Notifications <span class='badge badge-light'>4</span>",
          "</button>",
          "<button type='button' class='btn btn-secondary'>",
          "   Profile <span class='badge badge-light'>8</span>",
          "   <span class='sr-only'>unread messages</span>",
          "</button>"
        ]
      },
      {
        "status": "Contextual variations",
        "how_to_use": "Different contextual variations of the badge can be used to communicate the different states of an element or the content.  Use visually hidden text to convey meaning to assertive technologies.",
        "code": [
          "<span class='badge badge-primary'>Primary",
          "   <span class='sr-only'>Primary badge</span>",
          "</span>",
          "<span class='badge badge-secondary'>Secondary</span>",
          "   <span class='sr-only'>Secondary badge</span>",
          "</span>",
          "<span class='badge badge-danger'>Danger</span>",
          "   <span class='sr-only'>Danger badge</span>",
          "</span>",
          "<span class='badge badge-warning'>Warning</span>",
          "   <span class='sr-only'>Warning badge</span>",
          "</span>",
          "<span class='badge badge-info'>Info</span>",
          "   <span class='sr-only'>Info badge</span>",
          "</span>"
        ]
      },
      {
        "status": "Badge with icon button",
        "how_to_use": "Use badges with icons for dismissable actions, such as filters. Please refer to the <a href='/buttons/accessibility'>buttons accessibility</a> section for more information.",
        "code": [
          "<div class='badge badge-secondary'>Primary",
          "  <button class='btn-unstyled single-icon' aria-label='Clear filter' data-toggle='tooltip' title='Clear filter'>",
          "    <i class='eos-icons-outlined eos-18 icon-reset' aria-hidden='true'>close</i>",
          "  </button>",
          "</div>"
        ]
      }
    ]
  }
]
