[
  {
    "component": "cards",
    "states": [
      {
        "status": "default",
        "how_to_use": "Always add a title and, if needed, additional options under a dropdown icon. If you need to provide faster access to actions in a card, consider using cards <strong>with action buttons</strong>.",
        "code": [
          "<div class='card w-50'>",
          "  <div class='card-header'>",
          "    <span class='card-title'>Card title</span>",
          "    <div class='dropdown float-right'>",
          "      <button class='btn-unstyled' data-toggle='dropdown'>",
          "        <i class='eos-icons-outlined eos-18 icon-reset' data-toggle='tooltip' title='More'>more_vert</i>",
          "      </button>",
          "      <div class='dropdown-menu' aria-labelledby='dropdownMenuButton'>",
          "        <button class='dropdown-item'>",
          "          <i class='eos-icons-outlined eos-18' aria-hidden='true'>edit</i>Edit profile",
          "        </button>",
          "        <button class='dropdown-item'>",
          "          <i class='eos-icons-outlined eos-18' aria-hidden='true'>settings</i>Settings",
          "        </button>",
          "        <button class='dropdown-item'>",
          "          <i class='eos-icons-outlined eos-18' aria-hidden='true'>subscriptions</i>My subscriptions",
          "        </button>",
          "      </div>",
          "    </div>",
          "  </div>",
          "  <div class='card-body'>",
          "    <p class='card-text'>Some quick example text to build on the card title and make up the bulk of the card&apos;s content.</p>",
          "  </div>",
          "</div>"
        ]
      },
      {
        "status": "With title, without header",
        "how_to_use": "When cards are only informational, for example, news or updates, you may use them without a card-header.",
        "code": [
          "<div class='card w-50'>",
          "  <div class='card-body'>",
          "    <span class='card-title'>Card title</span>",
          "    <span class='card-subtitle mb-2'>Card subtitle</span>",
          "    <p class='card-text'>Some quick example text to build on the card title and make up the bulk of the card&apos;s content.</p>",
          "  </div>",
          "</div>"
        ]
      },
      {
        "status": "With links",
        "how_to_use": "When you need to provide faster access to links in a card, use this type, otherwise consider using the default card with options inside a dropdown.",
        "code": [
          "<div class='card w-50'>",
          "  <div class='card-header'>",
          "    <span class='card-title'>Card title</span>",
          "  </div>",
          "  <div class='card-body'>",
          "    <p class='card-text'>Some quick example text to build on the card title and make up the bulk of the card&apos;s content.</p>",
          "   <div class='d-flex justify-content-end'>",
          "     <a class='card-link' href='#'>Card link</a>",
          "     <a class='card-link' href='#'>Another link</a>",
          "   </div>",
          "  </div>",
          "</div>"
        ]
      },
      {
        "status": "With action buttons",
        "how_to_use": "When you need to provide faster access to actions in a card, use this type, otherwise consider using the default card with options inside a dropdown.",
        "code": [
          "<div class='card w-50'>",
          "  <div class='card-header'>",
          "    <span class='card-title'>Card title</span>",
          "  </div>",
          "  <div class='card-body'>",
          "    <p class='card-text'>Some quick example text to build on the card title and make up the bulk of the card&apos;s content.</p>",
          "    <div class='d-flex justify-content-end'>",
          "      <button class='btn-unstyled' data-toggle='tooltip' title='Lock'>",
          "         <i class='eos-icons-outlined eos-18' aria-hidden='true'>lock</i>",
          "     </button>",
          "     <button class='btn-unstyled' data-toggle='tooltip' title='Favorite'>",
          "       <i class='eos-icons-outlined eos-18 icon-reset' aria-hidden='true'>star</i>",
          "    </button>",
          "    </div>",
          "  </div>",
          "</div>"
        ]
      },
      {
        "status": "With action buttons, vertical",
        "how_to_use": "When you need to provide faster access to actions in a card, use this type, otherwise consider using the default card with options inside a dropdown.",
        "code": [
          "<div class='card w-25'>",
          "  <div class='card-header'>",
          "    <span class='card-title'>Card title</span>",
          "  </div>",
          "  <div class='card-body'>",
          "    <p class='card-text'>Some quick example text to build on the card title and make up the bulk of the card&apos;s content.</p>",

          "  </div>",
          "  <div class='card-footer'>",
          "    <div class='d-flex justify-content-between'>",
          "      <button class='btn-unstyled' data-toggle='tooltip' title='Lock'>",
          "         <i class='eos-icons-outlined eos-18 icon-reset' aria-hidden='true'>lock</i>",
          "     </button>",
          "     <button class='btn-unstyled' data-toggle='tooltip' title='Favorite'>",
          "       <i class='eos-icons-outlined eos-18 icon-reset' aria-hidden='true'>star</i>",
          "    </button>",
          "     <button class='btn-unstyled' data-toggle='tooltip' title='Edit'>",
          "       <i class='eos-icons-outlined eos-18 icon-reset' aria-hidden='true'>edit</i>",
          "    </button>",
          "    </div>",
          "  </div>",
          "</div>"
        ]
      },
      {
        "status": "With image, vertical",
        "how_to_use": "",
        "code": [
          "<div class='card w-25'>",
          "  <img class='card-img-top' src='https://res.cloudinary.com/eosdesignsystem/image/upload/v1602233106/SUSE/suse-eg.svg' alt='SUSE-logo' />",
          "  <div class='card-body'>",
          "    <span class='card-title'>Card title</span>",
          "    <p class='card-text'>Some quick example text to build on the card title and content.</p>",
          "  </div>",
          "</div>"
        ]
      },
      {
        "status": "With image, horizontally",
        "how_to_use": "Horizontal cards use a row and column system to distribute the image and the content. Use the Bootstrap grid system always where both columns should make up to 12, for example, col-md-4 + col-m-8.",
        "code": [
          "<div class='card w-50'>",
          "  <div class='row no-gutters'>",
          "    <div class='col-md-4 d-flex'>",
          "      <img class='card-img' src='https://res.cloudinary.com/eosdesignsystem/image/upload/v1602233106/SUSE/suse-eg.svg' alt='SUSE-logo' />",
          "    </div>",
          "    <div class='col-md-8'>",
          "      <div class='card-body'>",
          "        <span class='card-title'>Card title</span>",
          "        <p class='card-text'>This is a wider card with supporting text below as a natural lead-in to additional content. </p>",
          "        <p class='card-text'><small>Last updated 3 mins ago</small></p>",
          "      </div>",
          "    </div>",
          "  </div>",
          "</div>"
        ]
      },
      {
        "status": "With icon, vertical",
        "how_to_use": "",
        "code": [
          "<div class='card w-25'>",
          "  <div class='card-header card-with-icon'>",
          "     <i class='eos-icons-outlined eos-48'>node</i>",
          "  </div>",
          "  <div class='card-body'>",
          "    <span class='card-title'>Card title</span>",
          "    <p class='card-text'>Some quick example text to build on the card title and content.</p>",
          "  </div>",
          "</div>"
        ]
      },
      {
        "status": "With icon, horizontally",
        "how_to_use": "",
        "code": [
          "<div class='card w-50'>",
          "  <div class='row no-gutters'>",
          "    <div class='col-md-4'>",
          "       <div class='card-header card-with-icon'>",
          "          <i class='eos-icons-outlined eos-48' aria-hidden='true'>node</i>",
          "       </div>",
          "    </div>",
          "    <div class='col-md-8'>",
          "      <div class='card-body'>",
          "        <span class='card-title'>Card title</span>",
          "        <span class='card-subtitle mb-2'>Card subtitle</span>",
          "      </div>",
          "    </div>",
          "  </div>",
          "</div>"
        ]
      },
      {
        "status": "Cards decks",
        "how_to_use": "Wrapping your cards in a card-deck class enables your cards to distribute the horizontal space equally.",
        "code": [
          "<div class='card-deck'>",
          "  <div class='card'>",
          "    <img class='card-img-top' src='https://res.cloudinary.com/eosdesignsystem/image/upload/v1602233106/SUSE/suse-eg.svg'  alt='SUSE-logo' />",
          "    <div class='card-body'>",
          "      <span class='card-title'>Card title</span>",
          "      <p class='card-text'>Some quick example text to build on the card title and make up the bulk of the card&apos;s content.</p>",
          "    </div>",
          "  </div>",
          "  <div class='card'>",
          "    <img class='card-img-top' src='https://res.cloudinary.com/eosdesignsystem/image/upload/v1602233106/SUSE/suse-eg.svg'  alt='SUSE-logo' />",
          "    <div class='card-body'>",
          "      <span class='card-title'>Card title</span>",
          "      <p class='card-text'>Some quick example text to build on the card title and make up the bulk of the card&apos;s content.</p>",
          "    </div>",
          "  </div>",
          "  <div class='card'>",
          "    <img class='card-img-top' src='https://res.cloudinary.com/eosdesignsystem/image/upload/v1602233106/SUSE/suse-eg.svg' alt='SUSE-logo' />",
          "    <div class='card-body'>",
          "      <span class='card-title'>Card title</span>",
          "      <p class='card-text'>Some quick example text to build on the card title and make up the bulk of the card&apos;s content.</p>",
          "    </div>",
          "  </div>",
          "</div>"
        ]
      },
      {
        "status": "Contextual cards",
        "how_to_use": "Use cards with contextual colors when you need to provide immediate feedback to users. For example, in a list of systems, you may use contextual cards to highlight those failing.",
        "code": [
          "<div class='card-deck'>",
          "   <div class='card bg-success'>",
          "     <div class='card-header'>",
          "       <i class='eos-icons-outlined eos-18' aria-hidden='true'>check_circle</i> Success",
          "     </div>",
          "     <div class='card-body'>",
          "       <p class='card-text'>Some quick example text to build on the card title and make up the bulk of the card&apos;s content.</p>",
          "     </div>",
          "   </div>",
          "   <div class='card bg-danger'>",
          "     <div class='card-header'>",
          "       <i class='eos-icons-outlined eos-18' aria-hidden='true'>error</i> Danger",
          "     </div>",
          "     <div class='card-body'>",
          "       <p class='card-text'>Some quick example text to build on the card title and make up the bulk of the card&apos;s content.</p>",
          "     </div>",
          "   </div>",
          "   <div class='card bg-warning'>",
          "     <div class='card-header'>",
          "       <i class='eos-icons-outlined eos-18' aria-hidden='true'>warning</i> Warning",
          "     </div>",
          "     <div class='card-body'>",
          "       <p class='card-text'>Some quick example text to build on the card title and make up the bulk of the card&apos;s content.</p>",
          "     </div>",
          "   </div>",
          "   <div class='card bg-info'>",
          "     <div class='card-header'>",
          "       <i class='eos-icons-outlined eos-18' aria-hidden='true'>info</i> Information",
          "     </div>",
          "     <div class='card-body'>",
          "       <p class='card-text'>Some quick example text to build on the card title and make up the bulk of the card&apos;s content.</p>",
          "     </div>",
          "   </div>",
          "</div>"
        ]
      },
      {
        "status": "Contextual with icon",
        "how_to_use": "",
        "code": [
          "  <div class='card w-50 mb-3 bg-success'>",
          "    <div class='row no-gutters'>",
          "      <div class='col-md-4'>",
          "         <div class='card-header card-with-icon'>",
          "            <i class='eos-icons-outlined eos-48' aria-hidden='true'>node</i>",
          "         </div>",
          "      </div>",
          "      <div class='col-md-8'>",
          "        <div class='card-body'>",
          "          <span class='card-title'>Card title</span>",
          "          <span class='card-subtitle mb-2'>Card subtitle</span>",
          "        </div>",
          "      </div>",
          "    </div>",
          "  </div>",
          "  <div class='card w-50 mb-3 bg-danger'>",
          "    <div class='row no-gutters'>",
          "      <div class='col-md-4'>",
          "         <div class='card-header card-with-icon'>",
          "            <i class='eos-icons-outlined eos-48' aria-hidden='true'>node</i>",
          "         </div>",
          "      </div>",
          "      <div class='col-md-8'>",
          "        <div class='card-body'>",
          "          <span class='card-title'>Card title</span>",
          "          <span class='card-subtitle mb-2'>Card subtitle</span>",
          "        </div>",
          "      </div>",
          "    </div>",
          "  </div>",
          "  <div class='card mb-3 bg-warning w-50'>",
          "    <div class='row no-gutters'>",
          "      <div class='col-md-4'>",
          "         <div class='card-header card-with-icon'>",
          "            <i class='eos-icons-outlined eos-48' aria-hidden='true'>node</i>",
          "         </div>",
          "      </div>",
          "      <div class='col-md-8'>",
          "        <div class='card-body'>",
          "          <span class='card-title'>Card title</span>",
          "          <span class='card-subtitle mb-2'>Card subtitle</span>",
          "        </div>",
          "      </div>",
          "    </div>",
          "  </div>",
          "  <div class='card bg-info w-50'>",
          "    <div class='row no-gutters'>",
          "      <div class='col-md-4'>",
          "         <div class='card-header card-with-icon'>",
          "            <i class='eos-icons-outlined eos-48' aria-hidden='true'>node</i>",
          "         </div>",
          "      </div>",
          "      <div class='col-md-8'>",
          "        <div class='card-body'>",
          "          <span class='card-title'>Card title</span>",
          "          <span class='card-subtitle mb-2'>Card subtitle</span>",
          "        </div>",
          "      </div>",
          "    </div>",
          "  </div>"
        ]
      },
      {
        "status": "Clickable",
        "how_to_use": "Use this card design when you have a link in the card and want to make the whole card's surface clickable.",
        "code": [
          " <div class='card card-horizontal clickable' style='width: 510px;'>",
          "   <div class='card-content'>",
          "     <div>",
          "       <span class='card-title'>How to rebrand your product</span>",
          "       <p>The new SUSE brand is here and EOS has adapted in order to provide a  cohesive user experience to our customers.",
          "       </p>",
          "     </div>",
          "   </div>",
          "   <span class='card-icon'>",
          "     <i class='eos-icons-outlined eos-18' aria-hidden='true'>library_books</i>",
          "   </span>",
          "   <footer>",
          "     <a href='#' class='card-link'>Read articles</a>",
          "   </footer>",
          " </div>"
        ]
      },
      {
        "status": "Clickable with vertical image",
        "how_to_use": "Clickable cards are very useful when you have an image. It prevents the user from accessing the link quicker, since the whole surface of the card is clickable.",
        "code": [
          " <div class='card card-horizontal clickable w-50'>",
          "   <div class='card-img-wrap'>",
          "     <img src='https://res.cloudinary.com/eosdesignsystem/image/upload/v1637762489/demo-img-cards-showcase.png' alt='Example image' />",
          "   </div>",
          "   <div class='card-body'>",
          "    <span class='d-block h5 card-title'>Global alerts</span>",
          "    <p class='card-text'>",
          "       Global alerts appear as a fixed, full-width strip, on top of the screen",
          "       throughout the application.",
          "     </p>",
          "     <div class='d-flex justify-content-end'>",
          "       <a class='card-link' href='/alerts/global'>Read more</a>",
          "     </div>",
          "   </div>",
          " </div>"
        ]
      }
    ]
  }
]
