[
  {
    "component": "input-range",
    "states": [
      {
        "status": "default",
        "how_to_use": "This is the default state of the element.",
        "code": [
          "<div class='form-group'>",
          "   <label for='default-range' class='margin-bottom-s'>Range</label>",
          "   <input id='default-range' type='range' value='1' min='1' max='100' />",
          "</div>"
        ]
      },
      {
        "status": "focused",
        "how_to_use": "A focused state communicates when a user has highlighted an element using a keyboard or currently interacting with the field.",
        "code": [
          "<div class='form-group'>",
          "   <label for='focues-range' class='margin-bottom-s'>Range</label>",
          "   <input id='focues-range' type='range' value='1' min='1' max='100' autofocus/>",
          "</div>"
        ]
      },
      {
        "status": "disabled",
        "how_to_use": "This prevents the user from interacting with a field until certain conditions are met. When possible, show an alert or error message to inform users why it is disabled.",
        "code": [
          "<div class='form-group'>",
          "   <label for='disabled-range' class='disabled margin-bottom-s' aria-label='Input field is disabled'>Range</label>",
          "   <input id='disabled-range' type='range' value='1' min='1' max='100' disabled/>",
          "</div>"
        ]
      },
      {
        "status": "error",
        "how_to_use": "It indicates there was an error with the field on submission. Only affected fields should be highlighted with error message.",
        "code": [
          "<div class='form-group'>",
          "   <label for='error-range' class='margin-bottom-s'>Range</label>",
          "   <input id='error-range' type='range' value='1' min='1' max='100' />",
          "   <span class='error-msg'>",
          "      <i class='eos-icons-outlined eos-18' aria-hidden='true'>error</i>",
          "      Range cannot be 0",
          "   </span>",
          "</div>"
        ]
      },
      {
        "status": "optional",
        "how_to_use": "Use (optional) to indicate non-mandatory fields rather than indicating only mandatory fields. This practice has proved to reduce stress in users when filling out long forms.",
        "code": [
          "<div class='form-group'>",
          "   <label for='optional-range' class='margin-bottom-s'>Range <span class='optional-label'>(optional)</span></label>",
          "   <input id='optional-range' type='range' value='1' min='1' max='100' />",
          "</div>"
        ]
      }
    ]
  }
]
