{
  "section": "Color contrast",
  "id": "color-contrast",
  "checks": [
    {
      "task": "Check the contrast for all normal-sized text.",
      "description": "Level AA compliance requires a contrast ratio of 4.5:1.",
      "link": "https://www.w3.org/TR/UNDERSTANDING-WCAG20/visual-audio-contrast-contrast.html",
      "isCompleted": false
    },
    {
      "task": "Check the contrast for all large-sized text.",
      "description": "Level AA compliance requires a contrast ratio of 3:1.",
      "link": "https://www.w3.org/TR/UNDERSTANDING-WCAG20/visual-audio-contrast-contrast.html",
      "isCompleted": false
    },
    {
      "task": "Check the contrast for all icons.",
      "description": "Level AA compliance requires a contrast ratio of 3.0:1.",
      "link": "https://www.w3.org/WAI/WCAG21/Understanding/non-text-contrast.html",
      "isCompleted": false
    },
    {
      "task": "Check the contrast of borders for input elements (text input, radio buttons, checkboxes, etc.). ",
      "description": "Level AA compliance requires a contrast ratio of 3.0:1",
      "link": "https://www.w3.org/WAI/WCAG21/Understanding/non-text-contrast.html",
      "isCompleted": false
    },
    {
      "task": "Check text that overlaps images or video.",
      "description": "Is text still legible?",
      "link": "https://www.w3.org/TR/UNDERSTANDING-WCAG20/visual-audio-contrast-contrast.html",
      "isCompleted": false
    },
    {
      "task": "Check custom ::selection colors",
      "description": "Is the color contrast you set in your ::selection CSS declaration sufficient? Otherwise someone may not be able read it if they highlight it.",
      "link": "https://www.w3.org/TR/UNDERSTANDING-WCAG20/visual-audio-contrast-contrast.html",
      "isCompleted": false
    }
  ]
}
